<?xml version="1.0" encoding="UTF-8"?>
<svg width="24px" height="24px" viewBox="0 0 24 24" version="1.1" xmlns="http://www.w3.org/2000/svg" xmlns:xlink="http://www.w3.org/1999/xlink">
    <!-- Generator: sketchtool 49.3 (51167) - http://www.bohemiancoding.com/sketch -->
    <title>26889B0A-F97B-4384-BFB2-7297AC98F03B</title>
    <desc>Created with sketchtool.</desc>
    <defs></defs>
    <g id="SAP-CEO-Desktop" stroke="none" stroke-width="1" fill="none" fill-rule="evenodd">
        <g id="Agenda" transform="translate(-1162.000000, -1725.000000)" stroke="#000000" stroke-width="3">
            <g id="XIcon" transform="translate(1174.213203, 1737.213203) rotate(-315.000000) translate(-1174.213203, -1737.213203) translate(1159.213203, 1722.213203)">
                <path d="M14.5714286,0 L14.5714286,29.5922227" id="Path-3"></path>
                <path d="M29.5922227,14.5714286 L0,14.5714286" id="Path-3-Copy"></path>
            </g>
        </g>
    </g>
</svg>