<?xml version="1.0" encoding="UTF-8"?>
<svg width="39px" height="39px" viewBox="0 0 39 39" version="1.1" xmlns="http://www.w3.org/2000/svg" xmlns:xlink="http://www.w3.org/1999/xlink">
    <!-- Generator: Sketch 52.5 (67469) - http://www.bohemiancoding.com/sketch -->
    <title>down arrow</title>
    <desc>Created with Sketch.</desc>
    <defs>
        <polygon id="path-1" points="0 0 39 0 39 39 0 39"></polygon>
    </defs>
    <g id="Page-1" stroke="none" stroke-width="1" fill="none" fill-rule="evenodd">
        <g id="future" transform="translate(-480.000000, -1566.000000)">
            <g id="nav-bar" transform="translate(249.000000, 1540.000000)">
                <g id="next" transform="translate(231.000000, 26.000000)">
                    <g id="down-arrow" transform="translate(19.500000, 19.500000) rotate(-180.000000) translate(-19.500000, -19.500000) ">
                        <mask id="mask-2" fill="white">
                            <use xlink:href="#path-1"></use>
                        </mask>
                        <g id="Clip-2"></g>
                        <path d="M28.8781711,26.0509233 L19.5,16.6721383 L10.1218289,26.0509233 L6.12062676,22.0498041 L19.5,8.6707082 L32.8793732,22.0498041 L28.8781711,26.0509233 Z M19.5,0 C8.73070386,0 0,8.73052291 0,19.4995958 C0,30.2694771 8.73070386,39 19.5,39 C30.2701045,39 39,30.2694771 39,19.4995958 C39,8.73052291 30.2701045,0 19.5,0 Z" id="Fill-1" fill="#F0AB00" mask="url(#mask-2)"></path>
                    </g>
                </g>
            </g>
        </g>
    </g>
</svg>