<?xml version="1.0" encoding="UTF-8"?>
<svg width="25px" height="12px" viewBox="0 0 25 12" version="1.1" xmlns="http://www.w3.org/2000/svg" xmlns:xlink="http://www.w3.org/1999/xlink">
    <!-- Generator: Sketch 49.3 (51167) - http://www.bohemiancoding.com/sketch -->
    <title>Hamburger</title>
    <desc>Created with Sketch.</desc>
    <defs></defs>
    <g id="Symbols" stroke="none" stroke-width="1" fill="none" fill-rule="evenodd" stroke-linecap="square">
        <g id="Menu-Bar" transform="translate(-279.000000, -9.000000)" stroke="#C09E32" stroke-width="2">
            <g id="Hamburger" transform="translate(280.000000, 9.000000)">
                <path d="M0,1 L23,1" id="Line-2-Copy-3"></path>
                <path d="M0,6 L23,6" id="Line-2-Copy-4"></path>
                <path d="M0,11 L23,11" id="Line-2-Copy-5"></path>
            </g>
        </g>
    </g>
</svg>