{
    "speakers": [
        {
            "headshot": "london-bill-mcdermott.jpg",
            "name": "Bill McDermott",
            "job": "CEO, SAP",
            "bio": "Bill McDermott is chief executive officer of SAP, the world’s business software market leader. He leads the company’s more than 88,500 employees and 2+ million-person ecosystem in executing SAP’s vision to help the world run better and improve peoples’ lives.\n\nSince becoming CEO in 2010, Bill’s innovation-led strategy for SAP has resulted in expansive increases in customers, total revenue, market value and profitable growth. One of the most popular leaders in business, Bill’s approval rating from employees on website Glassdoor hovers around 99%. As the only American in history to lead Europe’s most valuable technology company, Bill advises world leaders and policymakers on issues including youth unemployment, digital government and international trade policy. He is a member of the European Roundtable of Industrialists and the U.S. Business Council.\n\nBill also serves on the boards of directors for performance apparel maker Under Armour, engineering software maker ANSYS, Inc. and security solutions leader Dell SecureWorks. He has received numerous awards for his civic leadership, including GENYOUth’s Vanguard Award, City Year’s Idealist of the Year, the We Are Family Foundation’s Visionary Award and the Children’s Aid Society’s Promise Award. He is a proud supporter of Thomas Jefferson University Hospital and Jefferson Health.\n\nHis life stories and leadership lessons are shared in Bill’s worldwide best-selling autobiography, Winners Dream: A Journey from Corner Store to Corner Office. The book is now in its 12th printing and was awarded the gold medal for business memoir of the year in 2014. It has been published in the United States, United Kingdom, Germany and China.\n\nBill resides in Germany, the United States and, most frequently, at 39,000 feet."
        },
        {
            "headshot": "london-clive-owen.jpg",
            "name": "Clive Owen",
            "job": "Academy Award Nominee and Golden Globe Winner",
            "bio": "Academy Award nominee and Golden Globe winner Clive Owen is celebrated by audiences in the U.K., the United States and around the world. His diverse choice of film credits proves him to be one of the most versatile actors of our day. With his captivating performance in the title role of Mike Hodges’ sleeper hit Croupier, critics have compared him to the likes of Bogart, Mitchum, and Connery! In 2005, he proved himself a screen star by winning a Golden Globe and picking up an Academy Award nomination for his role as Larry in Mike Nichols’ Closer. The film also starred Julia Roberts, Jude Law and Natalie Portman.\n\nClive, a British actor, first came onto the scene in several British and American telefilms. In 1991 he starred in his first big hit, the UK television series CHANCER. Other UK telefilm credits included the BBC's SECOND SIGHT, which aired on PBS's MYSTERY!\n\nClive made his film debut in Beeban Kidron’s Vroom in 1988, in which he restores a classic-American car to take off on the road with costar David Thewlis. Then, in 1991, he went on to play a brother who acts upon his incestuous feelings in Stephen Poliakoff’s Close My Eyes. Later, he continued to play complex characters as he starred as a reckless homosexual in corrupt pre-war Germany who finds unconditional love while in a Nazi war camp in Sean Mathias’ Bent. In 2001 and 2002 respectively, he went on to star in Joel Hershman’s offbeat British comedy, Greenfingers, Mike Hodges’ Croupier and Robert Altman’s star-studded Gosford Park.\n\nClive’s next films only added to his already brilliant and varied choice of film credits. He starred with Angelina Jolie in the romantic war drama Beyond Borders; the Mike Hodges’ thriller I’ll Sleep When I’m Dead; action war drama King Arthur; Sin City, which co-starred Bruce Willis, Benicio Del Toro, Rosario Dawson and Jessica Alba; Derailed opposite Jennifer Aniston; Spike Lee’s thriller Inside Man opposite Denzel Washington and Jodie Foster; Alfonso Cuaron’s critically acclaimed action-packed film Children of Men opposite Julianne Moore and Michael Caine; Michael Davis’s Shoot ‘Em Up and Elizabeth: The Golden Age with Cate Blanchett, where he portrayed Sir Walter Raleigh. Other film credits include Tony Gilroy’s Duplicity opposite Julia Roberts, The International with Naomi Watts, Juan Carlos Fresnadillo’s The Intruders, Scott Hicks’ Boys are Back, Trust with Catherine Keener and Viola Davis, directed by David Schwimmer, The Killer Elite with Robert De Niro and Jason Statham, James Marsh’s critically acclaimed Shadow Dancer with Andrea Riseborough, Guillame Canet’s Blood Ties with Marion Cotillard, Zoe Saldana, Mila Kunis and Billy Crudup, and Fred Schepisi’s Words & Pictures with Juliette Binoche. He will next be seen Anon with Amanda Seyfried and is currently in production on Ang Lee’s Gemini Man with Will Smith.\n\nIn television, Clive was most recently seen starring in Steven Soderbergh’s The Knick for Cinemax, which he also executive produced. His portrayal of Dr. Thatchery earned him a 2015 Golden Globe Best Actor nomination. In 2011, Clive made his American TV debut in HBO’s Emmy nominated film Hemingway & Gellhorn, starring opposite Nicole Kidman and directed by Phil Kaufman. His performance earned him Emmy, SAG and Golden Globe nominations.\n\nClive is also an acclaimed stage actor with roles including his portrayal of Romeo at the Young Vic, starring in Sean Mathias’ staging of Noel Coward’s Design for Living, and playing the lead role in Patrick Marber’s original production of Closer at the Royal National Theater in 1997. In the fall of 2001, he starred in London in Lawrence Boswell’s staging of Peter Nichols’ A Day in the Death of Joe Egg. In fall 2015, Clive made his Broadway debut in the American Airlines Theater revival of Old Times. He later returned to Broadway in the 2017 production of M. Butterfly."
        },
        {
            "headshot": "london-peter-holbrook.jpg",
            "name": "Peter Holbrook CBE",
            "job": "CEO, Social Enterprise UK",
            "bio": "Peter Holbrook became CEO of Social Enterprise UK in January 2010.\n\nSocial Enterprise UK is the national trade body for social enterprise and represents a wide range of social enterprises, regional and national support networks and other related organisations. SEUK works to promote social enterprise as a model for changing both business and society.\n\nSEUK inform the policy agenda, continue to influence the political agenda, promote the benefits of social enterprise through the media, campaigns and events, and undertake research to expand the social enterprise evidence base.\n\nPeter has established, developed and supported hundreds of diverse social enterprises over his career. He has advised government taskforces in the UK and overseas and chaired the Social Enterprise World Forum, the global network of social businesses until 2015.\n\nPeter has previously worked for Oxfam, Greenpeace and various disability charities. He has experience of working in overseas development, community development and public health. Peter started his career with Marks and Spencer PLC and also spent several years with Body Shop International.\n\nHe was appointed a CBE in 2015."
        },
        {
            "headshot": "london-francesca-mcdonagh.jpg",
            "name": "Francesca McDonagh",
            "job": "Group CEO, Bank of Ireland",
            "bio": "Francesca was appointed Group Chief Executive Officer in October 2017. Bank of Ireland is a diversified financial services group established in 1783 and is one of the largest financial services groups in Ireland.\n\nFrancesca joined Bank of Ireland from the HSBC Group, where she held a number of key senior management roles over a twenty year period including Regional Head of Retail Banking and Wealth Management, UK and Europe; Regional Head of Retail Banking and Wealth Management, Middle East and North Africa; and Head of Personal Financial Services, Hong Kong.\n\nFrancesca is a member of the PRA Practitioner Panel. She has previously served on the Board of the British Bankers’ Association (BBA), where she was Deputy Chair and on the Board of the National Centre for Universities and Business in the UK. Francesca has a Bachelor of Arts Degree in Politics, Philosophy and Economics from Oxford University."
        },
        {
            "headshot": "london-chris-holmes.png",
            "name": "Lord Chris Holmes MBE",
            "job": "House of Lords Artificial Intelligence Committee",
            "bio": "Chris is a former Paralympic swimmer who won nine gold, five silver and one bronze medals across four Games, including a record haul of six golds at Barcelona in 1992.\n\nChris is also Chair of the Global Disability Innovation Hub, Diversity Adviser to the civil service, non-executive director at Channel 4 and Chancellor at BPP University.\n\nIn 2013, Chris entered the House of Lords where his focus is on technology and the digital opportunity, employment, education and skills, media and sport. He sits on the Future Talent Steering Group which offers thought leadership on the future of work and how best to develop opportunities and skills for people and organisations in a changing world.\n\nChris is vice-chair of the Parliamentary Groups on Assistive Technology, Fintech, Artificial Intelligence, Blockchain and the 4th IR. He is a member of the House of Lords Select Committee on Artificial Intelligence and has been member of Committees on Digital Skills, Social Mobility and Financial Exclusion.\n\nBefore entering the Lords Chris was Director of Paralympic Integration at the London 2012 Organizing Committee of the Olympic and Paralympic Games (LOCOG). From 2013 to 2017 Chris was Disability Commissioner at the Equality and Human Rights Commission and is a qualified lawyer."
        },
        {
            "headshot": "london-blythe-masters.jpg",
            "name": "Blythe Masters",
            "job": "CEO, Digital Asset",
            "bio": "Blythe Masters is CEO of Digital Asset Holdings, a New York headquartered financial technology company that builds highly innovative enterprise software. Digital Asset is a first- mover and acknowledged leader in the field of Distributed Ledger Technology (DLT, also sometimes known as blockchain). Its products improve efficiency, security, compliance and settlement speed for wholesale financial service providers and enable the growth of new platform-based businesses. The Australian Stock Exchange, ASX, was recently the first market infrastructure in the world to announce its intent to replace its post-trade equities infrastructure with DLT, provided by Digital Asset. Blythe joined Digital Asset as CEO in March 2015.\n\nShe is also Chair of the Governing Board of the Linux Foundation’s open source Hyperledger Project, member of the International Advisory Board of Santander Group, and Advisory Board Member of the US Chamber of Digital Commerce.\n\nBlythe was previously a senior executive at J.P. Morgan which she left in 2014 after a career spanning 27 years, following the successful sale of the bank’s physical commodities business which she built. She was a member of the J.P. Morgan Corporate & Investment Bank Operating Committee and previously the firm's Executive Committee. From 2012, in addition to Global Commodities, she was responsible for the Corporate & Investment Bank's Regulatory Affairs. From 2004 to 2007, she was CFO of the Investment Bank. Prior to that role, she was head of Global Credit Portfolio and Credit Policy and Strategy. Earlier positions included head of North American Structured Credit Products, co-head of Asset Backed Securitization and head of Global Credit Derivatives Marketing. Blythe joined J.P. Morgan full-time in 1991, after completing a number of internships at the bank dating back to 1987.\n\nFrom 2011 to 2013, Blythe was chair of the Global Financial Markets Association (GFMA), and from 2008 to 2010, she was chair of the Securities Industry and Financial Markets Association (SIFMA). Blythe was the Chair of the Board of Santander Consumer USA Holdings, Inc (NYSE: SC), a consumer finance company from 2015 to 2016.\n\nBlythe’s philanthropic activities include: Co-Chair of the Board of the Global Fund for Women, Member of the Board of Directors of the Breast Cancer Research Foundation, Board Member of ID2020, Board Member of the Feminist Institute, and Former Chair of the Board of the Greater New York City Affiliate of Susan G. Komen for the Cure.\n\nBlythe received a B.A. in economics from Trinity College. She is an avid equestrian, has one daughter and lives in New York."
        },
        {
            "headshot": "london-jutta-steiner.jpg",
            "name": "Dr. Jutta Steiner",
            "job": "Co-founder and CEO, Parity Technologies",
            "bio": "Jutta is the co-founder and CEO of Parity Technologies. Parity Tech has developed the most advanced and popular Ethereum client and has recently started a new Blockchain protocol called Polkadot pioneering work to address governance, interoperability and scalability of Blockchain technology. She previously served as Chief of Security for the Ethereum Foundation, overseeing security audit and integration prior to the launch of the public blockchain in 2015. Jutta also co-founded Project Provenance, where she pioneered the use of blockchain technology to foster transparency in supply chains. Jutta has helped found and advise a number of additional organisations, including GridSingularity; a decentralized energy data exchange platform hosting a range of applications to facilitate energy data analysis and benchmarking, investment decisions and smart grid management."
        },
        {
            "headshot": "london-joel-hellermark.jpg",
            "name": "Joel Hellermark",
            "job": "Founder and CEO, Sana Labs",
            "bio": "Joel is the founder and CEO of Sana Labs, an artificial intelligence company that applies recent breakthroughs in deep learning to personalize education. Using deep neural networks, Sana’s algorithms recommend educational content based on each student’s learning patterns.\n\nThe interdisciplinary team at Sana Labs includes leading engineers and scientist with backgrounds ranging from Imperial College and CERN to Google and Spotify. Working with some of the world’s largest education companies, the Sana technology is transforming how millions of people learn.\n\nAn enterprising child, Joel taught himself to code in C at age 13 and founded his first company, a video recommendation technology, at 16. Recently, Joel was awarded “Super Talent of the Year” by Veckans Affärer and “Entrepreneur of the Year” by SEB for his work on the Sana technology."
        },
        {
            "headshot": "london-brent-hoberman.jpg",
            "name": "Brent Hoberman CBE",
            "job": "Chairman and Co-founder, Founders Factory",
            "bio": "Brent Hoberman is chairman and co-founder of Founders Factory, an ambitious corporate backed incubator/accelerator based in London, and also of Founders Forum, a series of intimate annual global events for the leading entrepreneurs of today and the rising stars of tomorrow. Brent is a co-founder and was founding chairman of Smartup, Grip & made.com, a leading European direct-from-factory consumer homewares retailer. Most recently, Brent co-founded firstminute capital, a London-based pan-European seed fund, backed by some of the world's top entrepreneurs. Brent co-founded lastminute.com in April 1998, was CEO from its inception and sold it in 2005 to Sabre for $1.1bn.  Technology businesses he has co-founded have raised over $640m.\n\nBrent sits on the Advisory board for LetterOne Technology (a $16bn investment fund), the Oxford Foundry and the UK Government Digital Advisory Board. He is a board member of The Economist, a YGL and one of the Prime Minister's Business Trade Ambassadors. Brent was awarded a CBE for services to entrepreneurship in the 2015 New Year's Honour's List."
        },
        {
            "headshot": "london-pascal-weinberger.jpg",
            "name": "Pascal C. Weinberger",
            "job": "Serial Entrepreneur and Head of AI, Alpha",
            "bio": "Pascal C. Weinberger has used most of his time and focus so far to dive deep in the field of computational Neuroscience and Machine Learning, with the long-term goal of bringing these two worlds closer together (e.g., rebuilding the algorithms of the neocortex), while on the way leaving his footprint with global impact projects which are leveraging the immensely growing power of technology and data.\n\nHe has done multiple research projects together with renowned institutes like the DFKI and the Max-Plank Institute of Neuroscience. After joining Numenta in early 2014, he worked with Google[x] in the Brain Group on a couple of R&D projects in this space. After having led his own R&D Strategy and Implementation Consulting firm, he has now joined Alpha to build Moonshot projects, as a Head of AI to work on the biggest AI challenges, while still actively investing and advising startups. He is also Leader for Kariossociety and engaged with Endeavour.\n\nOn the side, Pascal runs a company focusing on bringing AI and Blockchain solutions to industry problems globally."
        },
        {
            "headshot": "london-kim-clijsters.jpg",
            "name": "Kim Clijsters",
            "job": "Six-time Grand Slam Winner and former WTA World No. 1",
            "bio": "Kim Clijsters was born in Bilzen, Belgium to a very sporting family – her father Lei was a soccer coach and player, named as Belgium’s 1988 Player of the Year, and her mother, Els, a Belgian champion in gymnastics – but for Kim it was all about tennis. She started playing competitive tennis at the age of six and made her WTA debut in May 1999 in Antwerp.\n\nWith her enthusiasm, talent and sportsmanship, she conquered the hearts of tennis fans and players both on the court and off in no time. In August 2013, she became the 13th player and first Belgian to hold the No.1 singles ranking, she spent a total of 20 weeks as WTA World No.1 and is one of just six women to own the WTA World No.1 ranking simultaneously in both singles and doubles. Clijsters won her first Grand Slam singles title at the US Open in 2005, before stepping away from the game in 2007 to start a family. Her stunning comeback two years later would produce a further three majors – the US Open in 2009 and 2010, and the Australian Open in 2011, taking her total haul of singles titles to 41; she also captured doubles crowns at Roland Garros and Wimbledon in 2003 among 11 titles in the team discipline. Eight times the winner of the WTA’s Karen Krantzcke Sportsmanship Award, and was recently honored with induction to the International Tennis Hall of Fame’s Class of 2017. Kim retired from professional tennis in 2012.\n\nKim, now a mother of three, Jada, Jack and Blake, is still involved in tennis as WTA Finals Ambassador, the WTA year-end championships which she won on three occasions. She also has the Kim Clijsters Sports & Health Club and Kim Clijsters Academy. In 2016, she and her former coach Carl Maes launched TEN4KIM, a program to make sure that talented players are financially supported in their careers, as Kim stated: “I want to help the children and players that have the same dream as me … but can’t afford it.”"
        },
        {
            "headshot": "london-sir-mo-farah.jpg",
            "name": "Sir Mo Farah CBE",
            "job": "Olympic, World, and European Champion in Distance Running",
            "bio": "Sir Mo Farah is a four times Olympic Games Champion, six times World Champion and eight times European Champion in long distance running. He holds the World Record for 2 miles indoors; European Records for 1500m, 10,000m and Half Marathon and British Records for 1500m, 3000m indoors, 5000m, 10,000m and Half Marathon.\n\nMo was born in Somalia and emigrated to the UK aged 8. In 2017 he was knighted by the Queen and awarded BBC Sports Personality of the Year. He is married to wife Tania and has four children - Rhianna, Amani, Aisha & Hussein."
        },
        {
            "headshot": "london-aksel-lund-svindal.jpg",
            "name": "Aksel Lund Svindal",
            "job": "Olympic and European Champion in Downhill Skiing",
            "bio": "Born in Lørenskog in Akershus county, Aksel Lund Svindal is a two-time overall World Cup champion (2007 and 2009), an Olympic gold medalist in super-G at the 2010 Winter Olympics and in downhill at the 2018 Winter Olympics, and a five-time World Champion in downhill, giant slalom, and super combined (2007 Åre, 2009 Val-d'Isère, 2011 Garmisch, and 2013 Schladming). With his victory in the downhill in 2013, Svindal became the first male alpine racer to win titles in four consecutive world championships\n\nAksel is a master of comebacks. He has suffered his fair share of severe injuries throughout his career. He used those spells away from the sport as a sabbatical to spend time in the Silicon Valley to learn about technology companies. He then returned to skiing to win his second Olympic gold medal in Pyeongchang, South Korea, this past February. Despite his star status, Aksel is known for his humility, being a role model and a team player. In an era in which every world-class athlete seems fixated on personal brand-building and competing for the most Facebook likes and Twitter followers, the Norwegian embraces an altogether different approach to success. It is a contrarian mix of humility, egalitarianism and basic respect.\n\nAksel Lund Svindal recently launched his own sustainable fashion brand, Greater Than A."
        },
        {
            "headshot": "london-david-cameron.jpg",
            "name": "David Cameron",
            "job": "Prime Minister of the United Kingdom (2010–2016)",
            "bio": "David Cameron served as Prime Minister of the United Kingdom of Great Britain and Northern Ireland from 2010 to 2016, leading Britain’s first Coalition Government in nearly 70 years.\n\nMr. Cameron came to power at a moment of economic crisis and with an unprecedented fiscal challenge. Under his leadership, the UK’s economy was transformed. The deficit was reduced by over two-thirds; one million businesses set-up; a record number of jobs were created: 1,000 extra jobs for every day he was Prime Minister; and Britain became the fastest-growing major advanced economy in the world.\n\nIn winning the 2014 Scottish referendum David Cameron ensured Scotland remained part of the United Kingdom. However, despite arguing that Britain was stronger, safer and better off inside the European Union, in June 2016, the British people voted to leave the EU. Following this defeat, David Cameron resigned as Prime Minister and Leader of the Conservative Party, leaving 10 Downing Street on 13 July 2016. In September 2016, he resigned as a Member of Parliament.\n\nSince leaving 10 Downing Street, David Cameron has continued focusing on issues he advanced while in office: supporting life chances for young people and building a bigger, stronger society; championing Britain’s cutting edge medical research; and promoting international development.\n\nDavid and his wife, Samantha, have three young children: Nancy, Elwen, and Florence, who was born in 2010 while her father was Prime Minister. Very sadly their much-loved eldest child, Ivan, who suffered from cerebral palsy and Ohtahara Syndrome, a rare and severe form of epilepsy, died in February 2009, aged six.\n\nThe family live in London and West Oxfordshire."
        }
    ]
}