<?xml version="1.0" encoding="UTF-8"?>
<svg width="34px" height="26px" viewBox="0 0 34 26" version="1.1" xmlns="http://www.w3.org/2000/svg" xmlns:xlink="http://www.w3.org/1999/xlink">
    <!-- Generator: sketchtool 49.3 (51167) - http://www.bohemiancoding.com/sketch -->
    <title>82B1374C-1487-4C43-9343-B535F66E2BF1</title>
    <desc>Created with sketchtool.</desc>
    <defs></defs>
    <g id="SAP-CEO-Desktop" stroke="none" stroke-width="1" fill="none" fill-rule="evenodd">
        <g id="Participants" transform="translate(-1180.000000, -152.000000)" stroke="#FFFFFF" stroke-width="3">
            <g id="SearchIcon" transform="translate(1182.000000, 154.000000)">
                <ellipse id="Oval" cx="10" cy="10.2666667" rx="10" ry="10.2666667"></ellipse>
                <path d="M20.5194805,16.6833333 L29.4609724,21.3647786" id="Line-4" stroke-linecap="square"></path>
            </g>
        </g>
    </g>
</svg>