{
    "participants": [
        {
           "First Name": "Phil",
           "Last Name": "Bentley",
           "Company Name": "Mitie",
           "Job Title": "CEO",
           "Headshot Upload": "london-phil-bentley.jpg"
        },
        {
           "First Name": "Thierry",
           "Last Name": "Breton",
           "Company Name": "Atos ",
           "Job Title": "Chairman and CEO",
           "Headshot Upload": "london-thierry-breton.jpg"
        },
        {
           "First Name": "Zak",
           "Last Name": "Brown",
           "Company Name": "McLaren Technology Group",
           "Job Title": "CEO",
           "Headshot Upload": "london-zak-brown.jpg"
        },
        {
            "First Name": "David",
            "Last Name": "Cameron",
            "Company Name": "",
            "Job Title": "Prime Minister of the United Kingdom (2010–2016)",
            "Headshot Upload": "london-david-cameron.jpg"
        },
        {
            "First Name": "Kim",
            "Last Name": "Clijsters",
            "Company Name": "",
            "Job Title": "Six-time Grand Slam Winner and former WTA World No. 1",
            "Headshot Upload": "london-kim-clijsters.jpg"
        },
        {
           "First Name": "Paolo",
           "Last Name": "De Cesare",
           "Company Name": "Printemps",
           "Job Title": "CEO",
           "Headshot Upload": "london-paolo-de-cesare.jpg"
        },
        {
           "First Name": "Philippe",
           "Last Name": "Delpech",
           "Company Name": "Sonepar",
           "Job Title": "CEO",
           "Headshot Upload": "london-philippe-delpech.jpg"
        },
        {
           "First Name": "Brian",
           "Last Name": "Duffy",
           "Company Name": "SAP",
           "Job Title": "President, EMEA North ",
           "Headshot Upload": "london-brian-duffy.jpg"
        },
        {
            "First Name": "Sir Mo",
            "Last Name": "Farah CBE",
            "Company Name": "",
            "Job Title": "Olympic, World, and European Champion",
            "Headshot Upload": "london-sir-mo-farah.jpg"
        },
        {
           "First Name": "Joel",
           "Last Name": "Hellermark",
           "Company Name": "Sana Labs",
           "Job Title": "Founder and CEO",
           "Headshot Upload": "london-joel-hellermark.jpg"
        },
        {
           "First Name": "Brent",
           "Last Name": "Hoberman CBE",
           "Company Name": "Founders Factory",
           "Job Title": "Chairman and Co-founder",
           "Headshot Upload": "london-brent-hoberman.jpg"
        },
        {
           "First Name": "Petter",
           "Last Name": "Holbrook CBE",
           "Company Name": "Social Enterprise UK",
           "Job Title": "CEO",
           "Headshot Upload": "london-peter-holbrook.jpg"
        },
        {
           "First Name": "Lord Chris",
           "Last Name": "Holmes MBE",
           "Company Name": "",
           "Job Title": "House of Lords Artificial Intelligence Committee",
           "Headshot Upload": "london-chris-holmes.jpg"
        },
        {
           "First Name": "Dennis",
           "Last Name": "Jönsson",
           "Company Name": "AB Tetra Pak",
           "Job Title": "President and CEO",
           "Headshot Upload": "london-dennis-jonssen.jpg"
        },
        {
           "First Name": "Bill",
           "Last Name": "Kelleher",
           "Company Name": "IBM",
           "Job Title": "Chief Executive, IBM UK and Ireland",
           "Headshot Upload": "london-bill-kelleher.jpg"
        },
        {
           "First Name": "Antonios",
           "Last Name": "Kerastaris",
           "Company Name": "INTRALOT",
           "Job Title": "Group CEO",
           "Headshot Upload": "london-antonios-kerastaris.jpg"
        },
        {
           "First Name": "Jochen",
           "Last Name": "Kress",
           "Company Name": "MAPAL ",
           "Job Title": "President",
           "Headshot Upload": "london-jochen-kress.jpg"
        },
        {
           "First Name": "Laurent",
           "Last Name": "Lenoir",
           "Company Name": "Aliaxis Group",
           "Job Title": "CEO",
           "Headshot Upload": "london-laurent-lenoir.jpg"
        },
        {
           "First Name": "Aksel",
           "Last Name": "Lund Svindal",
           "Company Name": "",
           "Job Title": "Olympic and European Champion",
           "Headshot Upload": "london-aksel-lund-svindal.jpg"
        },
        {
           "First Name": "Blythe",
           "Last Name": "Masters",
           "Company Name": "Digital Asset",
           "Job Title": "CEO",
           "Headshot Upload": "london-blythe-masters.jpg"
        },
        {
           "First Name": "Bill",
           "Last Name": "McDermott",
           "Company Name": "SAP",
           "Job Title": "CEO",
           "Headshot Upload": "london-bill-mcdermott.jpg"
        },
        {
           "First Name": "Francesca",
           "Last Name": "McDonagh",
           "Company Name": "Bank of Ireland",
           "Job Title": "Group CEO",
           "Headshot Upload": "london-francesca-mcdonagh.jpg"
        },
        {
           "First Name": "Andy",
           "Last Name": "Milner",
           "Company Name": "Amey",
           "Job Title": "CEO",
           "Headshot Upload": "london-andy-milner.jpg"
        },
        {
           "First Name": "Melissa",
           "Last Name": "Odabash",
           "Company Name": "Melissa Odabash",
           "Job Title": "Founder and CEO",
           "Headshot Upload": "headshot-filler.png"
        },
        {
           "First Name": "Clive",
           "Last Name": "Owen",
           "Company Name": "",
           "Job Title": "Academy Award Nominee and Golden Globe Winner",
           "Headshot Upload": "london-clive-owen.jpg"
        },
        {
           "First Name": "David",
           "Last Name": "Pemsel",
           "Company Name": "Guardian Media Group",
           "Job Title": "CEO",
           "Headshot Upload": "london-david-pemsel.jpg"
        },
        {
           "First Name": "Rob",
           "Last Name": "Schilder",
           "Company Name": "G-Star",
           "Job Title": "CEO",
           "Headshot Upload": "london-rob-schilder.jpg"
        },
        {
           "First Name": "Florian",
           "Last Name": "Seiche",
           "Company Name": "HMD Global",
           "Job Title": "CEO",
           "Headshot Upload": "london-florian-seiche.jpg"
        },
        {
           "First Name": "Dr. Jutta",
           "Last Name": "Steiner",
           "Company Name": "Parity Technologies",
           "Job Title": "Co-Founder and CEO",
           "Headshot Upload": "london-jutta-steiner.jpg"
        },
        {
           "First Name": "Nadja",
           "Last Name": "Swarovski",
           "Company Name": "Swarovski",
           "Job Title": "Member of the Executive Board, Swarovski Crystal Business",
           "Headshot Upload": "london-nadja-swarovski.png"
        },
        {
           "First Name": "Nick",
           "Last Name": "Tzitzon",
           "Company Name": "SAP",
           "Job Title": "Executive Vice President, Marketing and Communications",
           "Headshot Upload": "london-nick-tzitzon.png"
        },
        {
           "First Name": "Pascal C.",
           "Last Name": "Weinberger",
           "Company Name": "Alpha",
           "Job Title": "Serial Entrepreneur and Head of AI",
           "Headshot Upload": "london-pascal-weinberger.jpg"
        }
    ]
}