<?xml version="1.0" encoding="UTF-8"?>
<svg width="39px" height="31px" viewBox="0 0 39 31" version="1.1" xmlns="http://www.w3.org/2000/svg" xmlns:xlink="http://www.w3.org/1999/xlink">
    <!-- Generator: sketchtool 49.3 (51167) - http://www.bohemiancoding.com/sketch -->
    <title>C72770F4-C669-4EA7-8807-0D4E82146D8F</title>
    <desc>Created with sketchtool.</desc>
    <defs></defs>
    <g id="SAP-CEO-Desktop" stroke="none" stroke-width="1" fill="none" fill-rule="evenodd">
        <g id="Participants" transform="translate(-213.000000, -149.000000)" stroke="#000000">
            <g id="Back-Button" transform="translate(215.000000, 149.000000)">
                <g id="Group-2">
                    <polyline id="Path-2" stroke-width="3" points="16.4691406 1.10961914 0.723632812 15.1286316 16.4691406 29.147644"></polyline>
                    <g id="Group" transform="translate(0.000000, 13.125000)" stroke-width="3">
                        <path d="M1.07617188,2.04299927 L36.2704357,2.04299927" id="Path-3"></path>
                    </g>
                </g>
            </g>
        </g>
    </g>
</svg>